<?xml version="1.0" encoding="UTF-8" standalone="no"?>
<!-- Created with Inkscape (http://www.inkscape.org/) -->

<svg
   width="256"
   height="256"
   viewBox="0 0 67.733332 67.733335"
   version="1.1"
   id="svg5"
   sodipodi:docname="box.svg"
   inkscape:version="1.2.2 (b0a8486541, 2022-12-01)"
   xmlns:inkscape="http://www.inkscape.org/namespaces/inkscape"
   xmlns:sodipodi="http://sodipodi.sourceforge.net/DTD/sodipodi-0.dtd"
   xmlns="http://www.w3.org/2000/svg"
   xmlns:svg="http://www.w3.org/2000/svg">
  <sodipodi:namedview
     id="namedview6"
     pagecolor="#ffffff"
     bordercolor="#666666"
     borderopacity="1.0"
     inkscape:showpageshadow="2"
     inkscape:pageopacity="0.0"
     inkscape:pagecheckerboard="0"
     inkscape:deskcolor="#d1d1d1"
     showgrid="false"
     inkscape:zoom="1.7578125"
     inkscape:cx="116.62222"
     inkscape:cy="128"
     inkscape:window-width="1366"
     inkscape:window-height="699"
     inkscape:window-x="0"
     inkscape:window-y="0"
     inkscape:window-maximized="1"
     inkscape:current-layer="svg5" />
  <defs
     id="defs2" />
  <g
     id="layer1">
    <path
       style="color:#000000;fill:#000000;stroke-linecap:square;-inkscape-stroke:none"
       d="m 15.275391,2.1171875 c -7.2529262,0 -13.1582035,5.9052773 -13.1582035,13.1582035 v 37.183593 c 0,7.252926 5.9052773,13.158203 13.1582035,13.158203 h 37.183593 c 7.252926,0 13.158203,-5.905277 13.158203,-13.158203 V 15.275391 c 0,-7.2529262 -5.905277,-13.1582035 -13.158203,-13.1582035 z m 0,4.2324219 h 37.183593 c 4.980887,0 8.923829,3.9448946 8.923828,8.9257816 v 37.183593 c 0,4.980887 -3.942941,8.923829 -8.923828,8.923828 H 15.275391 c -4.980887,0 -8.9257816,-3.942941 -8.9257816,-8.923828 V 15.275391 c 0,-4.980887 3.9448946,-8.9257816 8.9257816,-8.9257816 z"
       id="rect848" />
  </g>
</svg>
